%YAML 1.1
%TAG !u! tag:unity3d.com,2011:
--- !u!114 &11400000
MonoBehaviour:
  m_ObjectHideFlags: 0
  m_CorrespondingSourceObject: {fileID: 0}
  m_PrefabInstance: {fileID: 0}
  m_PrefabAsset: {fileID: 0}
  m_GameObject: {fileID: 0}
  m_Enabled: 1
  m_EditorHideFlags: 0
  m_Script: {fileID: 11500000, guid: 7b4b71ae96e50f44ab7b93130ca108b6, type: 3}
  m_Name: ShotGun
  m_EditorClassIdentifier: 
  m_loadedMagazine:
    m_ammo:
      bars: []
      m_max: 6
      m_min: 0
      m_current: 6
      setToMaxOnStart: 1
      clampRange: 0
      customString: 
    m_ammoType: 2
  m_bulletsFiredPerShot: 8
  m_ammoUsedPerShot: 1
  m_drawTime: 0.25
  m_sheatheTime: 0.25
  m_kineticDamage: 26
  m_energyDamage: 0
  m_reloadTime: 0.4
  m_internalMag: 1
  m_ammoType: 2
  m_fireMode: 2
  m_weaponObjectPrefab: {fileID: 3203550903548569080, guid: 975c6412826ef29429edc62b35774e9b,
    type: 3}
  m_weaponObject: {fileID: 0}
  m_bulletCasingEjectForce: 2
  m_bulletCasingPrefab: {fileID: 2749154074450548770, guid: 67f40a0ded975a8478b23dcbd36f5629,
    type: 3}
  m_defaultBulletImpactPrefab: {fileID: 3127531355647031194, guid: ed7d5d02bab93eb4792cf7f5121d39dd,
    type: 3}
  m_tracerPrefab: {fileID: 3970023666883005405, guid: a4648742c9e976140a5e7ec898c5f568,
    type: 3}
  m_accuracyPerShot: 0.07
  m_accuracy: 0.3
  m_currentAccuracy: 0.2
  m_accuracyRegain: 0.5
  m_recoilVerticalPerShot: 0.5
  m_aimAccuracy: 0.2
  m_cockingTime: 0.45
  m_cocked: 0
  m_aimDownSightSpeed: 0.2
  shotsFiredInBurst: 0
  m_defaultSight: {fileID: 11400000, guid: 05f5272f7e91674408ad6cf237f41029, type: 2}
  m_currentSight: {fileID: 0}
  m_magSprite: {fileID: 21300000, guid: 85f0581cd484d8244a9a02419a57d288, type: 3}
