%YAML 1.1
%TAG !u! tag:unity3d.com,2011:
--- !u!114 &11400000
MonoBehaviour:
  m_ObjectHideFlags: 0
  m_CorrespondingSourceObject: {fileID: 0}
  m_PrefabInstance: {fileID: 0}
  m_PrefabAsset: {fileID: 0}
  m_GameObject: {fileID: 0}
  m_Enabled: 1
  m_EditorHideFlags: 0
  m_Script: {fileID: 11500000, guid: 7b4b71ae96e50f44ab7b93130ca108b6, type: 3}
  m_Name: SMG
  m_EditorClassIdentifier: 
  m_loadedMagazine:
    m_ammo:
      bars: []
      m_max: 30
      m_min: 0
      m_current: 30
      setToMaxOnStart: 1
      clampRange: 0
      customString: 
    m_ammoType: 3
  m_bulletsFiredPerShot: 1
  m_ammoUsedPerShot: 1
  m_drawTime: 0.25
  m_sheatheTime: 0.25
  m_kineticDamage: 34
  m_energyDamage: 0
  m_reloadTime: 1
  m_internalMag: 0
  m_ammoType: 0
  m_fireMode: 0
  m_weaponObjectPrefab: {fileID: 5830033552540598582, guid: 0ae8f61b49c5f0d49a6e0e4da6a65434,
    type: 3}
  m_weaponObject: {fileID: 0}
  m_bulletCasingEjectForce: 2
  m_bulletCasingPrefab: {fileID: 5091952246216866997, guid: ee93cbaee5255ff42b6c4b84c7f3f3b1,
    type: 3}
  m_defaultBulletImpactPrefab: {fileID: 3127531355647031194, guid: ed7d5d02bab93eb4792cf7f5121d39dd,
    type: 3}
  m_tracerPrefab: {fileID: 3970023666883005405, guid: a4648742c9e976140a5e7ec898c5f568,
    type: 3}
  m_accuracyPerShot: 0.03
  m_accuracy: 0.1
  m_currentAccuracy: 0.1
  m_accuracyRegain: 0.5
  m_recoilVerticalPerShot: 0.3
  m_aimAccuracy: 0
  m_cockingTime: 0.04
  m_cocked: 0
  m_aimDownSightSpeed: 0.15
  shotsFiredInBurst: 0
  m_defaultSight: {fileID: 11400000, guid: 238a53679fce1954ca53db317e9f5f73, type: 2}
  m_currentSight: {fileID: 0}
  m_magSprite: {fileID: 21300000, guid: 85f0581cd484d8244a9a02419a57d288, type: 3}
